{
	"info": {
		"_postman_id": "be3e62b8-87a1-4962-bb16-924a698c7298",
		"name": "api_bci",
		"schema": "https://schema.getpostman.com/json/collection/v2.1.0/collection.json"
	},
	"item": [
		{
			"name": "http://localhost:8080/BciAPI/adduser",
			"event": [
				{
					"listen": "test",
					"script": {
						"id": "d23833ca-36cf-4f01-8af1-5b77323b74e7",
						"exec": [
							""
						],
						"type": "text/javascript"
					}
				}
			],
			"request": {
				"auth": {
					"type": "bearer",
					"bearer": [
						{
							"key": "token",
							"value": "{{jwt_token}}",
							"type": "string"
						}
					]
				},
				"method": "POST",
				"header": [],
				"body": {
					"mode": "raw",
					"raw": "{\r\n\t\"name\": \"daniel gonzalez\",\r\n\t\"email\": \"dgonzalez@gmail.com\",\r\n\t\"password\": \"Mau5zalas5\",\r\n\t\"phones\": [{\r\n\t\t\"number\": \"12345\",\r\n\t\t\"citycode\": \"11\",\r\n\t\t\"contrycode\": \"1\"\r\n\t },{\r\n\t\t\"number\": \"67889\",\r\n\t\t\"citycode\": \"17\",\r\n\t\t\"contrycode\": \"8\"\r\n\t    }\r\n     ]\r\n}",
					"options": {
						"raw": {
							"language": "json"
						}
					}
				},
				"url": {
					"raw": "http://localhost:8080/BciAPI/registro",
					"protocol": "http",
					"host": [
						"localhost"
					],
					"port": "8080",
					"path": [
						"BciAPI",
						"registro"
					]
				}
			},
			"response": []
		},
		{
			"name": "http://localhost:8080/BciAPI/allUsers",
			"request": {
				"auth": {
					"type": "bearer",
					"bearer": [
						{
							"key": "token",
							"value": "{{jwt_token}}",
							"type": "string"
						}
					]
				},
				"method": "GET",
				"header": [],
				"url": {
					"raw": "http://localhost:8080/BciAPI/allUsers",
					"protocol": "http",
					"host": [
						"localhost"
					],
					"port": "8080",
					"path": [
						"BciAPI",
						"allUsers"
					]
				}
			},
			"response": []
		},
		{
			"name": "http://localhost:8080/BciAPI/login",
			"event": [
				{
					"listen": "test",
					"script": {
						"id": "ce54c07f-6aa4-4c6e-8e14-7c603c8418f3",
						"exec": [
							"const response = pm.response.json();\r",
							"pm.globals.set(\"jwt_token\", response.token);"
						],
						"type": "text/javascript"
					}
				}
			],
			"request": {
				"auth": {
					"type": "bearer",
					"bearer": [
						{
							"key": "token",
							"value": "",
							"type": "string"
						}
					]
				},
				"method": "POST",
				"header": [],
				"body": {
					"mode": "urlencoded",
					"urlencoded": [
						{
							"key": "password",
							"value": "admin",
							"type": "text"
						},
						{
							"key": "email",
							"value": "mg.salazar.perez@gmail.com",
							"type": "text"
						}
					]
				},
				"url": {
					"raw": "http://localhost:8080/BciAPI/login",
					"protocol": "http",
					"host": [
						"localhost"
					],
					"port": "8080",
					"path": [
						"BciAPI",
						"login"
					]
				}
			},
			"response": []
		}
	],
	"protocolProfileBehavior": {}
}